chisel_dev/doce_nf_work_sim/.Xil/Vivado-29772-Gwins7-Legion/iladata_0220/zip_work/iladata_0220.vcd
$date
        2023-Feb-20 12:36:55
$end
$version
        Vivado v2020.1 (64-bit)
$end
$timescale
        1ps
$end
$scope module dut $end
$var reg 512 " CMAC_in_tdata [511:0] $end
$var reg 64 L& CMAC_in_tkeep [63:0] $end
$var reg 512 .' CMAC_out_tdata [511:0] $end
$var reg 64 X, CMAC_out_tkeep [63:0] $end
$var reg 32 :- QDMA_c2h_err_counter [31:0] $end
$var reg 32 Z- QDMA_c2h_pack_counter [31:0] $end
$var reg 512 z- QDMA_c2h_stub_in_tdata [511:0] $end
$var reg 3 F3 \QDMA_c2h_stub_out_ctrl[port_id] [2:0] $end
$var reg 11 I3 \QDMA_c2h_stub_out_cmp_ctrl[qid] [10:0] $end
$var reg 2 T3 \QDMA_c2h_stub_out_cmp_ctrl[cmpt_type] [1:0] $end
$var reg 3 V3 \QDMA_c2h_stub_out_cmp_ctrl[color_idx] [2:0] $end
$var reg 3 Y3 \QDMA_c2h_stub_out_cmp_ctrl[error_idx] [2:0] $end
$var reg 3 \3 \QDMA_c2h_stub_out_cmp_ctrl[port_id] [2:0] $end
$var reg 16 _3 \QDMA_c2h_stub_out_ctrl[len] [15:0] $end
$var reg 16 o3 \QDMA_c2h_stub_out_cmp_ctrl[wait_pld_pkt_id] [15:0] $end
$var reg 16 !4 \QDMA_c2h_stub_out_cmp_data[cmp_ent][len] [15:0] $end
$var reg 3 14 \QDMA_c2h_stub_out_cmp_data[cmp_ent][rsv] [2:0] $end
$var reg 108 44 \QDMA_c2h_stub_out_cmp_data[cmp_ent][usr_data] [107:0] $end
$var reg 2 B5 \QDMA_c2h_stub_out_cmp_data[cmp_size] [1:0] $end
$var reg 4 D5 \QDMA_c2h_stub_out_cmp_data[dpar] [3:0] $end
$var reg 11 H5 \QDMA_c2h_stub_out_ctrl[qid] [10:0] $end
$var reg 64 S5 \QDMA_c2h_stub_out_data[par] [63:0] $end
$var reg 512 56 \QDMA_c2h_stub_out_data[tdata] [511:0] $end
$var reg 6 _; QDMA_c2h_stub_out_mty [5:0] $end
$var reg 512 e; QDMA_h2c_stub_out_tdata [511:0] $end
$var reg 16 1A QDMA_h2c_stub_out_tdest [15:0] $end
$var reg 1 AA CMAC_in_tlast $end
$var reg 1 BA CMAC_in_tready $end
$var reg 1 CA CMAC_in_tvalid $end
$var reg 1 DA CMAC_out_tlast $end
$var reg 1 EA CMAC_out_tready $end
$var reg 1 FA CMAC_out_tuser $end
$var reg 1 GA CMAC_out_tvalid $end
$var reg 1 HA QDMA_c2h_cmpt_tready $end
$var reg 1 IA QDMA_c2h_stub_in_tlast $end
$var reg 1 JA QDMA_c2h_stub_in_tready $end
$var reg 1 KA QDMA_c2h_stub_in_tuser $end
$var reg 1 LA QDMA_c2h_stub_in_tvalid $end
$var reg 1 MA \QDMA_c2h_stub_out_cmp_ctrl[marker] $end
$var reg 1 NA \QDMA_c2h_stub_out_cmp_ctrl[user_trig] $end
$var reg 1 OA \QDMA_c2h_stub_out_cmp_data[cmp_ent][desc_used] $end
$var reg 1 PA QDMA_c2h_stub_out_cmp_tvalid $end
$var reg 1 QA \QDMA_c2h_stub_out_ctrl[has_cmpt] $end
$var reg 1 RA \QDMA_c2h_stub_out_ctrl[marker] $end
$var reg 1 SA QDMA_c2h_stub_out_tlast $end
$var reg 1 TA QDMA_c2h_stub_out_tvalid $end
$var reg 1 UA QDMA_c2h_tready $end
$var reg 1 VA QDMA_h2c_stub_out_tlast $end
$var reg 1 WA QDMA_h2c_stub_out_tready $end
$var reg 1 XA QDMA_h2c_stub_out_tuser $end
$var reg 1 YA QDMA_h2c_stub_out_tvalid $end
$var reg 1 ZA _TRIGGER $end
$var reg 1 [A _WINDOW $end
$var reg 1 \A _GAP $end
$upscope $end
$enddefinitions $end
#0
$dumpvars
b0 "
b1111111111111111111111111111111111111111111111111111111111111111 L&
b0 .'
b0 X,
b0 :-
b0 Z-
b0 z-
b0 F3
b0 I3
b0 T3
b0 V3
b0 Y3
b0 \3
b0 _3
b0 o3
b0 !4
b0 14
b0 44
b0 B5
b0 D5
b0 H5
b0 S5
b0 56
b0 _;
b0 e;
b1 1A
0AA
1BA
1CA
0DA
1EA
0FA
0GA
0HA
0IA
1JA
0KA
0LA
0MA
0NA
0OA
0PA
0QA
0RA
0SA
0TA
1UA
0VA
1WA
0XA
0YA
0ZA
1[A
0\A
$end
#2
1YA
#6
1AA
#7
b11111111111111110000100000111001000000100101000000000000000000000000000000000000000000000000000000000000000000000101000000000000111010000000001100000001000000010000111100001111000001000000001000001111000011111111111111111111000001100100000000000000010000000000000000000001111100100000001100000000010001010000000000001000101001111010011100111011000000000101010001010010111011101111111000101110000111110110000111101000 "
0AA
0CA
#11
1VA
#12
0YA
#13
b10110110010011010000100000111001000000100101000000000000000000000000000000000000000000000000000000000000000000000101000000000000111010000000001100000001000000010000111100001111000001000000001000001111000011111110010000010100000001100100000000000000010000000000000000000001111100100000001100000000010001010000000000001000101001111010011100111011000000000101010001010010111011101111111000101110000111110110000111101000 "
1CA
#14
b0 "
#28
1AA
#29
b10110111010011010000100000111001000000100101000000000000000000000000000000000000000000000000000000000000000000000101000000000000111010000000001100000001000000010000111100001111000000110000001000001111000011111110010100010100000001100100000000000000010000000000000000000001111100100000001100000000010001010000000000001000101001111010011100111011000000000101010001010010111011101111111000101110000111110110000111101000 "
0AA
0CA
#53
b10111010010011010000100000111001000000100101000000000000000000000000000000000000000000000000000000000000000000000101000000000000111010000000001100000001000000010000111100001111000000000000001000001111000011111110100000010100000001100100000000000000010000000000000000000001111100100000001100000000010001010000000000001000101001111010011100111011000000000101010001010010111011101111111000101110000111110110000111101000 .'
b1111111111111111111111111111111111111111111111111111111111111111 X,
#64
1GA
1ZA
#65
b0 .'
#71
b10111010010011010000100000111001000000100101000000000000000000000000000000000000000000000000000000000000000000000101000000000000111010000000001100000001000000010000111100001111000000000000001000001111000011111110100000010100000001100100000000000000010000000000000000000001111100100000001100000000010001010000000000001000101001111010011100111011000000000101010001010010111011101111111000101110000111110110000111101000 z-
#79
1DA
#80
b10111001010011010000100000111001000000100101000000000000000000000000000000000000000000000000000000000000000000000101000000000000111010000000001100000001000000010000111100001111000000010000001000001111000011111110011100010100000001100100000000000000010000000000000000000001111100100000001100000000010001010000000000001000101001111010011100111011000000000101010001010010111011101111111000101110000111110110000111101000 .'
0DA
0GA
#85
b1 Z-
b1000000000000000000000000000000000000000000000000000000000000000000000000000000000000000000000000000000000000000000000000000000000000000000 z-
1KA
1LA
#86
b10111010010011010000100000111001000000100101000000000000000000000000000000000000000000000000000000000000000000000101000000000000111010000000001100000001000000010000111100001111000000000000001000001111000011111110100000010100000001100100000000000000010000000000000000000001111100100000001100000000010001010000000000001000101001111010011100111011000000000101010001010010111011101111111000101110000111110110000111101000 z-
1GA
0KA
#87
b0 .'
b0 z-
b11 T3
b10000000000 !4
b1 B5
b1111 D5
1OA
1PA
#88
b10000000000 _3
b1111111111110101011111111111110011101111101010011010000100101001 S5
b10111010010011010000100000111001000000100101000000000000000000000000000000000000000000000000000000000000000000000101000000000000111010000000001100000001000000010000111100001111000000000000001000001111000011111110100000010100000001100100000000000000010000000000000000000001111100100000001100000000010001010000000000001000101001111010011100111011000000000101010001010010111011101111111000101110000111110110000111101000 56
1QA
1TA
#89
b1111111111111111111111111111111111111111111111111111111111111111 S5
b0 56
#101
1DA
1IA
#102
b10111000010011010000100000111001000000100101000000000000000000000000000000000000000000000000000000000000000000000101000000000000111010000000001100000001000000010000111100001111000000100000001000001111000011111110011000010100000001100100000000000000010000000000000000000001111100100000001100000000010001010000000000001000101001111010011100111011000000000101010001010010111011101111111000101110000111110110000111101000 .'
b10111001010011010000100000111001000000100101000000000000000000000000000000000000000000000000000000000000000000000101000000000000111010000000001100000001000000010000111100001111000000010000001000001111000011111110011100010100000001100100000000000000010000000000000000000001111100100000001100000000010001010000000000001000101001111010011100111011000000000101010001010010111011101111111000101110000111110110000111101000 z-
0DA
0GA
0IA
0LA
#103
1SA
#104
0SA
0TA
#107
b10 Z-
b1000000000000000000000000000000000000000000000000000000000000000000000000000000000000000000000000000000000000000000000000000000000000000000 z-
1GA
1KA
1LA
#108
b0 .'
b10111001010011010000100000111001000000100101000000000000000000000000000000000000000000000000000000000000000000000101000000000000111010000000001100000001000000010000111100001111000000010000001000001111000011111110011100010100000001100100000000000000010000000000000000000001111100100000001100000000010001010000000000001000101001111010011100111011000000000101010001010010111011101111111000101110000111110110000111101000 z-
0KA
#109
b0 z-
#110
b1111111111110101011111111111110011001111101010011010000100101001 S5
b10111001010011010000100000111001000000100101000000000000000000000000000000000000000000000000000000000000000000000101000000000000111010000000001100000001000000010000111100001111000000010000001000001111000011111110011100010100000001100100000000000000010000000000000000000001111100100000001100000000010001010000000000001000101001111010011100111011000000000101010001010010111011101111111000101110000111110110000111101000 56
1TA
#111
b1111111111111111111111111111111111111111111111111111111111111111 S5
b0 56
#122
1DA
#123
b10110111010011010000100000111001000000100101000000000000000000000000000000000000000000000000000000000000000000000101000000000000111010000000001100000001000000010000111100001111000000110000001000001111000011111110010100010100000001100100000000000000010000000000000000000001111100100000001100000000010001010000000000001000101001111010011100111011000000000101010001010010111011101111111000101110000111110110000111101000 .'
0DA
0GA
1IA
#124
b10111000010011010000100000111001000000100101000000000000000000000000000000000000000000000000000000000000000000000101000000000000111010000000001100000001000000010000111100001111000000100000001000001111000011111110011000010100000001100100000000000000010000000000000000000001111100100000001100000000010001010000000000001000101001111010011100111011000000000101010001010010111011101111111000101110000111110110000111101000 z-
0IA
0LA
#125
1SA
#126
0SA
0TA
#128
b11 Z-
b1000000000000000000000000000000000000000000000000000000000000000000000000000000000000000000000000000000000000000000000000000000000000000000 z-
1GA
1KA
1LA
#129
b0 .'
b10111000010011010000100000111001000000100101000000000000000000000000000000000000000000000000000000000000000000000101000000000000111010000000001100000001000000010000111100001111000000100000001000001111000011111110011000010100000001100100000000000000010000000000000000000001111100100000001100000000010001010000000000001000101001111010011100111011000000000101010001010010111011101111111000101110000111110110000111101000 z-
0KA
#130
b0 z-
#131
b1111111111111101011111111111110011001101101010011010000100101001 S5
b10111000010011010000100000111001000000100101000000000000000000000000000000000000000000000000000000000000000000000101000000000000111010000000001100000001000000010000111100001111000000100000001000001111000011111110011000010100000001100100000000000000010000000000000000000001111100100000001100000000010001010000000000001000101001111010011100111011000000000101010001010010111011101111111000101110000111110110000111101000 56
1TA
#132
b1111111111111111111111111111111111111111111111111111111111111111 S5
b0 56
#143
1DA
#144
b10110110010011010000100000111001000000100101000000000000000000000000000000000000000000000000000000000000000000000101000000000000111010000000001100000001000000010000111100001111000001000000001000001111000011111110010000010100000001100100000000000000010000000000000000000001111100100000001100000000010001010000000000001000101001111010011100111011000000000101010001010010111011101111111000101110000111110110000111101000 .'
0DA
0GA
1IA
#145
b10110111010011010000100000111001000000100101000000000000000000000000000000000000000000000000000000000000000000000101000000000000111010000000001100000001000000010000111100001111000000110000001000001111000011111110010100010100000001100100000000000000010000000000000000000001111100100000001100000000010001010000000000001000101001111010011100111011000000000101010001010010111011101111111000101110000111110110000111101000 z-
0IA
0LA
#146
1SA
#147
b10000000000000000000000000000000000000000000000000000000000000000000000000000000000000000000000000000000000000000000000000100000000000000010000000000000001 e;
0SA
0TA
0VA
1XA
1YA
#148
b10110101010011010000100000111001000000100101000000000000000000000000000000000000000000000000000000000000000000000101000000000000111010000000001100000001000000010000111100001111000001010000001000001111000011111110001100010100000001100100000000000000010000000000000000000001111100100000001100000000010001010000000000001000101001111010011100111011000000000101010001010010111011101111111000101110000111110110000111101000 e;
1GA
0XA
#149
b0 .'
b100 Z-
b1000000000000000000000000000000000000000000000000000000000000000000000000000000000000000000000000000000000000000000000000000000000000000000 z-
b0 e;
1KA
1LA
#150
b11111111111111110000100000111001000000100101000000000000000000000000000000000000000000000000000000000000000000000101000000000000111010000000001100000001000000010000111100001111000000110000001000001111000011111111111111111111000001100100000000000000010000000000000000000001111100100000001100000000010001010000000000001000101001111010011100111011000000000101010001010010111011101111111000101110000111110110000111101000 "
b10110111010011010000100000111001000000100101000000000000000000000000000000000000000000000000000000000000000000000101000000000000111010000000001100000001000000010000111100001111000000110000001000001111000011111110010100010100000001100100000000000000010000000000000000000001111100100000001100000000010001010000000000001000101001111010011100111011000000000101010001010010111011101111111000101110000111110110000111101000 z-
0KA
#151
b11111111111111110000100000111001000000100101000000000000000000000000000000000000000000000000000000000000000000000101000000000000111010000000001100000001000000010000111100001111000001010000001000001111000011111111111111111111000001100100000000000000010000000000000000000001111100100000001100000000010001010000000000001000101001111010011100111011000000000101010001010010111011101111111000101110000111110110000111101000 "
b0 z-
#152
b1111111111111101011111111111110011101101101010011010000100101001 S5
b10110111010011010000100000111001000000100101000000000000000000000000000000000000000000000000000000000000000000000101000000000000111010000000001100000001000000010000111100001111000000110000001000001111000011111110010100010100000001100100000000000000010000000000000000000001111100100000001100000000010001010000000000001000101001111010011100111011000000000101010001010010111011101111111000101110000111110110000111101000 56
1TA
#153
b1111111111111111111111111111111111111111111111111111111111111111 S5
b0 56
0YA
#157
1YA
#163
1DA
#164
0GA
#165
1IA
#166
b10110110010011010000100000111001000000100101000000000000000000000000000000000000000000000000000000000000000000000101000000000000111010000000001100000001000000010000111100001111000001000000001000001111000011111110010000010100000001100100000000000000010000000000000000000001111100100000001100000000010001010000000000001000101001111010011100111011000000000101010001010010111011101111111000101110000111110110000111101000 z-
0IA
0LA
#167
1SA
1VA
#168
b10000000000000000000000000000000000000000000000000000000000000000000000000000000000000000000000000000000000000000000000000100000000000000010000000000000001 e;
0SA
0TA
0VA
1XA
#169
b10110101010011010000100000111001000000100101000000000000000000000000000000000000000000000000000000000000000000000101000000000000111010000000001100000001000000010000111100001111000001010000001000001111000011111110001100010100000001100100000000000000010000000000000000000001111100100000001100000000010001010000000000001000101001111010011100111011000000000101010001010010111011101111111000101110000111110110000111101000 "
b101 Z-
b1000000000000000000000000000000000000000000000000000000000000000000000000000000000000000000000000000000000000000000000000000000000000000000 z-
b10110100010011010000100000111001000000100101000000000000000000000000000000000000000000000000000000000000000000000101000000000000111010000000001100000001000000010000111100001111000001100000001000001111000011111110001000010100000001100100000000000000010000000000000000000001111100100000001100000000010001010000000000001000101001111010011100111011000000000101010001010010111011101111111000101110000111110110000111101000 e;
1CA
1KA
1LA
0XA
#170
b0 "
b10110110010011010000100000111001000000100101000000000000000000000000000000000000000000000000000000000000000000000101000000000000111010000000001100000001000000010000111100001111000001000000001000001111000011111110010000010100000001100100000000000000010000000000000000000001111100100000001100000000010001010000000000001000101001111010011100111011000000000101010001010010111011101111111000101110000111110110000111101000 z-
b0 e;
0KA
#171
b0 z-
0YA
#172
b1111111111110101011111111111110011001111101010011010000100101001 S5
b10110110010011010000100000111001000000100101000000000000000000000000000000000000000000000000000000000000000000000101000000000000111010000000001100000001000000010000111100001111000001000000001000001111000011111110010000010100000001100100000000000000010000000000000000000001111100100000001100000000010001010000000000001000101001111010011100111011000000000101010001010010111011101111111000101110000111110110000111101000 56
1TA
#173
b1111111111111111111111111111111111111111111111111111111111111111 S5
b0 56
1YA
#184
1AA
#185
b11111111111111110000100000111001000000100101000000000000000000000000000000000000000000000000000000000000000000000101000000000000111010000000001100000001000000010000111100001111000001100000001000001111000011111111111111111111000001100100000000000000010000000000000000000001111100100000001100000000010001010000000000001000101001111010011100111011000000000101010001010010111011101111111000101110000111110110000111101000 "
0AA
0CA
1IA
#186
b10110111010011010000100000111001000000100101000000000000000000000000000000000000000000000000000000000000000000000101000000000000111010000000001100000001000000010000111100001111000000110000001000001111000011111110010100010100000001100100000000000000010000000000000000000001111100100000001100000000010001010000000000001000101001111010011100111011000000000101010001010010111011101111111000101110000111110110000111101000 z-
0IA
0LA
1VA
#187
1SA
0YA
#188
b10110100010011010000100000111001000000100101000000000000000000000000000000000000000000000000000000000000000000000101000000000000111010000000001100000001000000010000111100001111000001100000001000001111000011111110001000010100000001100100000000000000010000000000000000000001111100100000001100000000010001010000000000001000101001111010011100111011000000000101010001010010111011101111111000101110000111110110000111101000 "
b10000000000000000000000000000000000000000000000000000000000000000000000000000000000000000000000000000000000000000000000000100000000000000010000000000000001 e;
1CA
0SA
0TA
0VA
1XA
1YA
#189
b0 "
b10110011010011010000100000111001000000100101000000000000000000000000000000000000000000000000000000000000000000000101000000000000111010000000001100000001000000010000111100001111000001110000001000001111000011111110000100010100000001100100000000000000010000000000000000000001111100100000001100000000010001010000000000001000101001111010011100111011000000000101010001010010111011101111111000101110000111110110000111101000 e;
0XA
#190
b0 e;
#195
0YA
#197
1YA
#198
0YA
#199
1YA
#203
1AA
#204
b11111111111111110000100000111001000000100101000000000000000000000000000000000000000000000000000000000000000000000101000000000000111010000000001100000001000000010000111100001111000001110000001000001111000011111111111111111111000001100100000000000000010000000000000000000001111100100000001100000000010001010000000000001000101001111010011100111011000000000101010001010010111011101111111000101110000111110110000111101000 "
0AA
0CA
#207
1VA
#208
b10000000000000000000000000000000000000000000000000000000000000000000000000000000000000000000000000000000000000000000000000100000000000000010000000000000001 e;
0VA
1XA
#209
b10110011010011010000100000111001000000100101000000000000000000000000000000000000000000000000000000000000000000000101000000000000111010000000001100000001000000010000111100001111000001110000001000001111000011111110000100010100000001100100000000000000010000000000000000000001111100100000001100000000010001010000000000001000101001111010011100111011000000000101010001010010111011101111111000101110000111110110000111101000 "
b10110010010011010000100000111001000000100101000000000000000000000000000000000000000000000000000000000000000000000101000000000000111010000000001100000001000000010000111100001111000010000000001000001111000011111110000000010100000001100100000000000000010000000000000000000001111100100000001100000000010001010000000000001000101001111010011100111011000000000101010001010010111011101111111000101110000111110110000111101000 e;
1CA
0XA
#210
b0 "
b0 e;
#215
0YA
#217
1YA
#224
1AA
#225
b11111111111111110000100000111001000000100101000000000000000000000000000000000000000000000000000000000000000000000101000000000000111010000000001100000001000000010000111100001111000010000000001000001111000011111111111111111111000001100100000000000000010000000000000000000001111100100000001100000000010001010000000000001000101001111010011100111011000000000101010001010010111011101111111000101110000111110110000111101000 "
0AA
0CA
#226
1VA
#227
b10000000000000000000000000000000000000000000000000000000000000000000000000000000000000000000000000000000000000000000000000100000000000000010000000000000001 e;
0VA
1XA
#228
b10110010010011010000100000111001000000100101000000000000000000000000000000000000000000000000000000000000000000000101000000000000111010000000001100000001000000010000111100001111000010000000001000001111000011111110000000010100000001100100000000000000010000000000000000000001111100100000001100000000010001010000000000001000101001111010011100111011000000000101010001010010111011101111111000101110000111110110000111101000 "
b10110001010011010000100000111001000000100101000000000000000000000000000000000000000000000000000000000000000000000101000000000000111010000000001100000001000000010000111100001111000010010000001000001111000011111101111100010100000001100100000000000000010000000000000000000001111100100000001100000000010001010000000000001000101001111010011100111011000000000101010001010010111011101111111000101110000111110110000111101000 e;
1CA
0XA
#229
b0 "
b0 e;
#234
0YA
#236
1YA
#243
1AA
#244
b11111111111111110000100000111001000000100101000000000000000000000000000000000000000000000000000000000000000000000101000000000000111010000000001100000001000000010000111100001111000010010000001000001111000011111111111111111111000001100100000000000000010000000000000000000001111100100000001100000000010001010000000000001000101001111010011100111011000000000101010001010010111011101111111000101110000111110110000111101000 "
0AA
0CA
#245
1VA
#246
b10000000000000000000000000000000000000000000000000000000000000000000000000000000000000000000000000000000000000000000000000100000000000000010000000000000001 e;
0VA
1XA
#247
b10110001010011010000100000111001000000100101000000000000000000000000000000000000000000000000000000000000000000000101000000000000111010000000001100000001000000010000111100001111000010010000001000001111000011111101111100010100000001100100000000000000010000000000000000000001111100100000001100000000010001010000000000001000101001111010011100111011000000000101010001010010111011101111111000101110000111110110000111101000 "
b10110000010011010000100000111001000000100101000000000000000000000000000000000000000000000000000000000000000000000101000000000000111010000000001100000001000000010000111100001111000010100000001000001111000011111101111000010100000001100100000000000000010000000000000000000001111100100000001100000000010001010000000000001000101001111010011100111011000000000101010001010010111011101111111000101110000111110110000111101000 e;
1CA
0XA
#248
b0 "
b0 e;
#253
0YA
#255
1YA
#262
1AA
#263
b11111111111111110000100000111001000000100101000000000000000000000000000000000000000000000000000000000000000000000101000000000000111010000000001100000001000000010000111100001111000010100000001000001111000011111111111111111111000001100100000000000000010000000000000000000001111100100000001100000000010001010000000000001000101001111010011100111011000000000101010001010010111011101111111000101110000111110110000111101000 "
0AA
0CA
#264
1VA
#265
b10000000000000000000000000000000000000000000000000000000000000000000000000000000000000000000000000000000000000000000000000100000000000000010000000000000001 e;
0VA
1XA
#266
b10110000010011010000100000111001000000100101000000000000000000000000000000000000000000000000000000000000000000000101000000000000111010000000001100000001000000010000111100001111000010100000001000001111000011111101111000010100000001100100000000000000010000000000000000000001111100100000001100000000010001010000000000001000101001111010011100111011000000000101010001010010111011101111111000101110000111110110000111101000 "
b10101111010011010000100000111001000000100101000000000000000000000000000000000000000000000000000000000000000000000101000000000000111010000000001100000001000000010000111100001111000010110000001000001111000011111101110100010100000001100100000000000000010000000000000000000001111100100000001100000000010001010000000000001000101001111010011100111011000000000101010001010010111011101111111000101110000111110110000111101000 e;
1CA
0XA
#267
b0 "
b0 e;
#269
0YA
#270
1YA
#281
1AA
#282
b11111111111111110000100000111001000000100101000000000000000000000000000000000000000000000000000000000000000000000101000000000000111010000000001100000001000000010000111100001111000010110000001000001111000011111111111111111111000001100100000000000000010000000000000000000001111100100000001100000000010001010000000000001000101001111010011100111011000000000101010001010010111011101111111000101110000111110110000111101000 "
0AA
0CA
1VA
#283
0YA
#284
b10101111010011010000100000111001000000100101000000000000000000000000000000000000000000000000000000000000000000000101000000000000111010000000001100000001000000010000111100001111000010110000001000001111000011111101110100010100000001100100000000000000010000000000000000000001111100100000001100000000010001010000000000001000101001111010011100111011000000000101010001010010111011101111111000101110000111110110000111101000 "
1CA
#285
b0 "
b10000000000000000000000000000000000000000000000000000000000000000000000000000000000000000000000000000000000000000000000000100000000000000010000000000000001 e;
0VA
1XA
1YA
#286
b10101110010011010000100000111001000000100101000000000000000000000000000000000000000000000000000000000000000000000101000000000000111010000000001100000001000000010000111100001111000011000000001000001111000011111101110000010100000001100100000000000000010000000000000000000001111100100000001100000000010001010000000000001000101001111010011100111011000000000101010001010010111011101111111000101110000111110110000111101000 e;
0XA
#287
b0 e;
#291
b10110101010011010000100000111001000000100101000000000000000000000000000000000000000000000000000000000000000000000101000000000000111010000000001100000001000000010000111100001111000001010000001000001111000011111110001100010100000001100100000000000000010000000000000000000001111100100000001100000000010001010000000000001000101001111010011100111011000000000101010001010010111011101111111000101110000111110110000111101000 .'
0DA
#292
0YA
#294
1YA
#299
1AA
#300
b11111111111111110000100000111001000000100101000000000000000000000000000000000000000000000000000000000000000000000101000000000000111010000000001100000001000000010000111100001111000011000000001000001111000011111111111111111111000001100100000000000000010000000000000000000001111100100000001100000000010001010000000000001000101001111010011100111011000000000101010001010010111011101111111000101110000111110110000111101000 "
0AA
0CA
#301
1GA
#302
b0 .'
#303
1VA
#304
b10000000000000000000000000000000000000000000000000000000000000000000000000000000000000000000000000000000000000000000000000100000000000000010000000000000001 e;
0VA
1XA
#305
b10101110010011010000100000111001000000100101000000000000000000000000000000000000000000000000000000000000000000000101000000000000111010000000001100000001000000010000111100001111000011000000001000001111000011111101110000010100000001100100000000000000010000000000000000000001111100100000001100000000010001010000000000001000101001111010011100111011000000000101010001010010111011101111111000101110000111110110000111101000 "
b10101101010011010000100000111001000000100101000000000000000000000000000000000000000000000000000000000000000000000101000000000000111010000000001100000001000000010000111100001111000011010000001000001111000011111101101100010100000001100100000000000000010000000000000000000001111100100000001100000000010001010000000000001000101001111010011100111011000000000101010001010010111011101111111000101110000111110110000111101000 e;
1CA
0XA
#306
b0 "
b0 e;
#308
b10110101010011010000100000111001000000100101000000000000000000000000000000000000000000000000000000000000000000000101000000000000111010000000001100000001000000010000111100001111000001010000001000001111000011111110001100010100000001100100000000000000010000000000000000000001111100100000001100000000010001010000000000001000101001111010011100111011000000000101010001010010111011101111111000101110000111110110000111101000 z-
#310
0YA
#312
1YA
#316
1DA
#317
b10110100010011010000100000111001000000100101000000000000000000000000000000000000000000000000000000000000000000000101000000000000111010000000001100000001000000010000111100001111000001100000001000001111000011111110001000010100000001100100000000000000010000000000000000000001111100100000001100000000010001010000000000001000101001111010011100111011000000000101010001010010111011101111111000101110000111110110000111101000 .'
0DA
0GA
#320
1AA
#321
b11111111111111110000100000111001000000100101000000000000000000000000000000000000000000000000000000000000000000000101000000000000111010000000001100000001000000010000111100001111000011010000001000001111000011111111111111111111000001100100000000000000010000000000000000000001111100100000001100000000010001010000000000001000101001111010011100111011000000000101010001010010111011101111111000101110000111110110000111101000 "
0AA
0CA
#322
b110 Z-
b1000000000000000000000000000000000000000000000000000000000000000000000000000000000000000000000000000000000000000000000000000000000000000000 z-
1GA
1KA
1LA
1VA
#323
b0 .'
b10110101010011010000100000111001000000100101000000000000000000000000000000000000000000000000000000000000000000000101000000000000111010000000001100000001000000010000111100001111000001010000001000001111000011111110001100010100000001100100000000000000010000000000000000000001111100100000001100000000010001010000000000001000101001111010011100111011000000000101010001010010111011101111111000101110000111110110000111101000 z-
b10000000000000000000000000000000000000000000000000000000000000000000000000000000000000000000000000000000000000000000000000100000000000000010000000000000001 e;
0KA
0VA
1XA
#324
b10101101010011010000100000111001000000100101000000000000000000000000000000000000000000000000000000000000000000000101000000000000111010000000001100000001000000010000111100001111000011010000001000001111000011111101101100010100000001100100000000000000010000000000000000000001111100100000001100000000010001010000000000001000101001111010011100111011000000000101010001010010111011101111111000101110000111110110000111101000 "
b0 z-
b10101100010011010000100000111001000000100101000000000000000000000000000000000000000000000000000000000000000000000101000000000000111010000000001100000001000000010000111100001111000011100000001000001111000011111101101000010100000001100100000000000000010000000000000000000001111100100000001100000000010001010000000000001000101001111010011100111011000000000101010001010010111011101111111000101110000111110110000111101000 e;
1CA
0XA
#325
b0 "
b1111111111110101011111111111110011101101101010011010000100101001 S5
b10110101010011010000100000111001000000100101000000000000000000000000000000000000000000000000000000000000000000000101000000000000111010000000001100000001000000010000111100001111000001010000001000001111000011111110001100010100000001100100000000000000010000000000000000000001111100100000001100000000010001010000000000001000101001111010011100111011000000000101010001010010111011101111111000101110000111110110000111101000 56
b0 e;
1TA
#326
b1111111111111111111111111111111111111111111111111111111111111111 S5
b0 56
#330
0YA
#332
1YA
#337
1DA
#338
b10110011010011010000100000111001000000100101000000000000000000000000000000000000000000000000000000000000000000000101000000000000111010000000001100000001000000010000111100001111000001110000001000001111000011111110000100010100000001100100000000000000010000000000000000000001111100100000001100000000010001010000000000001000101001111010011100111011000000000101010001010010111011101111111000101110000111110110000111101000 .'
0DA
0GA
1IA
#339
b10110100010011010000100000111001000000100101000000000000000000000000000000000000000000000000000000000000000000000101000000000000111010000000001100000001000000010000111100001111000001100000001000001111000011111110001000010100000001100100000000000000010000000000000000000001111100100000001100000000010001010000000000001000101001111010011100111011000000000101010001010010111011101111111000101110000111110110000111101000 z-
1AA
0IA
0LA
#340
b11111111111111110000100000111001000000100101000000000000000000000000000000000000000000000000000000000000000000000101000000000000111010000000001100000001000000010000111100001111000011100000001000001111000011111111111111111111000001100100000000000000010000000000000000000001111100100000001100000000010001010000000000001000101001111010011100111011000000000101010001010010111011101111111000101110000111110110000111101000 "
0AA
0CA
1SA
#341
0SA
0TA
1VA
#342
b10000000000000000000000000000000000000000000000000000000000000000000000000000000000000000000000000000000000000000000000000100000000000000010000000000000001 e;
0VA
1XA
#343
b10101100010011010000100000111001000000100101000000000000000000000000000000000000000000000000000000000000000000000101000000000000111010000000001100000001000000010000111100001111000011100000001000001111000011111101101000010100000001100100000000000000010000000000000000000001111100100000001100000000010001010000000000001000101001111010011100111011000000000101010001010010111011101111111000101110000111110110000111101000 "
b111 Z-
b1000000000000000000000000000000000000000000000000000000000000000000000000000000000000000000000000000000000000000000000000000000000000000000 z-
b10101011010011010000100000111001000000100101000000000000000000000000000000000000000000000000000000000000000000000101000000000000111010000000001100000001000000010000111100001111000011110000001000001111000011111101100100010100000001100100000000000000010000000000000000000001111100100000001100000000010001010000000000001000101001111010011100111011000000000101010001010010111011101111111000101110000111110110000111101000 e;
1CA
1KA
1LA
0XA
#344
b0 "
b10110100010011010000100000111001000000100101000000000000000000000000000000000000000000000000000000000000000000000101000000000000111010000000001100000001000000010000111100001111000001100000001000001111000011111110001000010100000001100100000000000000010000000000000000000001111100100000001100000000010001010000000000001000101001111010011100111011000000000101010001010010111011101111111000101110000111110110000111101000 z-
b0 e;
1GA
0KA
#345
b0 .'
b0 z-
#346
b1111111111111101011111111111110011101111101010011010000100101001 S5
b10110100010011010000100000111001000000100101000000000000000000000000000000000000000000000000000000000000000000000101000000000000111010000000001100000001000000010000111100001111000001100000001000001111000011111110001000010100000001100100000000000000010000000000000000000001111100100000001100000000010001010000000000001000101001111010011100111011000000000101010001010010111011101111111000101110000111110110000111101000 56
1TA
#347
b1111111111111111111111111111111111111111111111111111111111111111 S5
b0 56
#349
0YA
#351
1YA
#358
1AA
#359
b11111111111111110000100000111001000000100101000000000000000000000000000000000000000000000000000000000000000000000101000000000000111010000000001100000001000000010000111100001111000011110000001000001111000011111111111111111111000001100100000000000000010000000000000000000001111100100000001100000000010001010000000000001000101001111010011100111011000000000101010001010010111011101111111000101110000111110110000111101000 "
0AA
0CA
1DA
1IA
